C:\IdeaProjects\networks3_chattree\src\main\java\DeliveryTry.java
C:\IdeaProjects\networks3_chattree\src\main\java\NodeMain.java
C:\IdeaProjects\networks3_chattree\src\main\java\messages\MessageInputStream.java
C:\IdeaProjects\networks3_chattree\src\main\java\messages\MessageType.java
C:\IdeaProjects\networks3_chattree\src\main\java\Node.java
C:\IdeaProjects\networks3_chattree\src\main\java\messages\MessageOutputStream.java
C:\IdeaProjects\networks3_chattree\src\main\java\Test.java
C:\IdeaProjects\networks3_chattree\src\main\java\messages\Message.java
